…
### Neighborhoods with the most accidents

```r
  traffic %>% count(NEIGHBORHOOD_ID) %>% arrange(desc(n))
```

```
## # A tibble: 78 × 2
##    NEIGHBORHOOD_ID     n
##             <fctr> <int>
## 1        stapleton  6808
## 2            baker  6430
## 3     capitol-hill  4084
## 4      five-points  3934
## 5    hampden-south  3921
## 6     lincoln-park  3821
## 7        montbello  3108
## 8         highland  2976
## 9       globeville  2966
## 10             cbd  2691
## # ... with 68 more rows
```
…
```r
  traffic %>% count(DISTRICT_ID, PRECINCT_ID) %>% arrange(desc(n))
```

```
## Source: local data frame [33 x 3]
## Groups: DISTRICT_ID [7]
## 
##    DISTRICT_ID PRECINCT_ID     n
##         <fctr>      <fctr> <int>
## 1            3         311 10724
## 2            5         511  7568
## 3            3         323  6912
## 4            3         313  6649
## 5            3         312  6418
## 6            1         123  6030
## 7            6         611  4896
## 8            3         322  4601
## 9            1         113  4288
## 10           3         321  3975
## # ... with 23 more rows
```
…
  bicycles_hours <- count(bicycles, floor(OCCURRENCE_HOUR))
  colnames(bicycles_hours) <- c("hour", "count")

  bicyclehitrun_hours <- count(bicyclehitrun, floor(OCCURRENCE_HOUR))
  colnames(bicyclehitrun_hours) <- c("hour", "count")

  comparison <- bicyclehitrun_hours
  comparison$accidents <- bicycles_hours$count
  comparison$hitrun <- bicyclehitrun_hours$count
  comparison$probability <- bicyclehitrun_hours$count / bicycles_hours$count
  comparison
```

```
## # A tibble: 24 × 5
##     hour count accidents hitrun probability
##    <dbl> <int>     <int>  <int>       <dbl>
## 1      0    19        49     19   0.3877551
## 2      1    14        30     14   0.4666667
## 3      2    26        50     26   0.5200000
## 4      3     9        12      9   0.7500000
## 5      4     4        13      4   0.3076923
## 6      5     5        21      5   0.2380952
## 7      6    11        66     11   0.1666667
## 8      7    23       158     23   0.1455696
## 9      8    29       140     29   0.2071429
## 10     9    27       102     27   0.2647059
## # ... with 14 more rows
```
…
